[{
        "id": "001",
        "name": "Casual Shirt",
        "category": "Men Shirts",
        "gender": "men",
        "color": "Magenta",
        "size": "M",
        "price": "999",
        "stock": "10",
        "material": "Cotton",
        "brand": "Allen Solly",
        "description": "Elegant Full sleeves Plane Shirt",
        "image": "images/products/001.jpeg"
    },
    {
        "id": "002",
        "name": "Casual Shirt",
        "category": "Men Shirts",
        "gender": "men",
        "color": "White",
        "size": "M",
        "price": "899",
        "stock": "10",
        "material": "Cotton",
        "brand": "Peter England",
        "description": "Elegant Full Sleeves slim fit Shirt",
        "image": "images/products/002.jpeg"
    }, {
        "id": "003",
        "name": "Formal Shirt",
        "category": "Men Shirts",
        "gender": "men",
        "color": "Blue",
        "size": "M",
        "price": "1299",
        "stock": "10",
        "material": "Spandex",
        "brand": "Jhon Players",
        "description": "Full sleeves regular fit Shirt",
        "image": "images/products/003.jpeg"
    }, {
        "id": "004",
        "name": "Casual Top",
        "category": "Women Tops",
        "gender": "women",
        "color": "White",
        "size": "M",
        "price": "699",
        "stock": "10",
        "material": "Cotton",
        "brand": "Aakriti",
        "description": "Casual tops for anytime",
        "image": "images/products/004.jpeg"
    }, {
        "id": "005",
        "name": "Formal Shirt",
        "category": "Women Shirts",
        "gender": "women",
        "color": "Blue",
        "size": "M",
        "price": "859",
        "stock": "10",
        "material": "Cotton",
        "brand": "Zara",
        "description": "Elegant formal office wear shirt",
        "image": "images/products/005.jpeg"
    }, {
        "id": "006",
        "name": "Traditional Skirt Ethnic",
        "category": "Womens Ethnic",
        "gender": "women",
        "color": "Pink",
        "size": "30",
        "price": "1400",
        "stock": "3",
        "material": "Silk",
        "brand": "Rang Riti",
        "description": "Traditional skirt for ocassions",
        "image": "images/products/006.jpeg"
    }, {
        "id": "007",
        "name": "Dress-Set",
        "category": "Boys",
        "gender": "kids",
        "color": "Red",
        "size": "M",
        "price": "1199",
        "stock": "10",
        "material": "Cotton",
        "brand": "Spunk",
        "description": "Ethnic Dress Set- With Jacket",
        "image": "images/products/007.jpeg"
    }, {
        "id": "008",
        "name": "Christmas Frok",
        "category": "Girls",
        "gender": "kids",
        "color": "Red",
        "size": "M",
        "price": "900",
        "stock": "10",
        "material": "Cotton",
        "brand": "FBB",
        "description": "Christmas themed fork/tunic",
        "image": "images/products/008.jpeg"
    }
]